…
``` r
# Function to read the files
read_file <- function(file_name) {
  read_tsv(file.path(path, file_name),
           col_names = TRUE,
           col_types = "cc") %>%
    mutate(file_name = file_name)
}

# Apply the function
data <- bind_rows(lapply(file_list, read_file))
data
```

    ## # A tibble: 9,751 × 3
    ##    Text                                                          Theme file_name
    ##    <chr>                                                         <chr> <chr>    
    ##  1 Notably, our production performance in all our key businesse… Uncl… 2014_ang…
    ##  2 otwithstanding the tough pricing environment, there have bee… Uncl… 2014_ang…
    ##  3 SAFETYI never fail to be impressed by the level of commitmen… Human 2014_ang…
    ##  4 Under Tony O’Neill, our technical director, this is being gi… Human 2014_ang…
    ##  5 Allied to this, we are focusing on the deployment of  new te… Inte… 2014_ang…
    ##  6 These macro-economic conditions and the over-supply  of cert… Uncl… 2014_ang…
    ##  7 ResultsThese challenging conditions are demonstrating the re… Fina… 2014_ang…
    ##  8 PerformanceUnder the leadership of Mark Cutifani, considerab… Uncl… 2014_ang…
    ##  9 n 2014, we passed a number of important milestones on  the r… Fina… 2014_ang…
    ## 10 2014 saw a notable divergence in performance between the wor… Uncl… 2014_ang…
    ## # ℹ 9,741 more rows
…
    ## Joining with `by = join_by(word)`
    ## Selecting by n

``` r
tidy_top15
```

    ## # A tibble: 105 × 3
    ##    word        theme         n
    ##    <chr>       <chr>     <int>
    ##  1 revenue     Financial   816
    ##  2 growth      Financial   678
    ##  3 profit      Financial   676
    ##  4 operating   Financial   583
    ##  5 sales       Financial   480
    ##  6 million     Financial   464
    ##  7 net         Financial   444
    ##  8 cash        Financial   434
    ##  9 increased   Financial   431
    ## 10 performance Financial   348
    ## # ℹ 95 more rows
…
    ## Joining with `by = join_by(word)`
    ## Selecting by n

``` r
predicted_tidy_top15
```

    ## # A tibble: 112 × 3
    ##    word      predictions_test_data     n
    ##    <chr>     <chr>                 <int>
    ##  1 revenue   Financial               174
    ##  2 profit    Financial               141
    ##  3 growth    Financial               118
    ##  4 operating Financial               101
    ##  5 increased Financial                96
    ##  6 sales     Financial                94
    ##  7 cash      Financial                89
    ##  8 net       Financial                89
    ##  9 million   Financial                82
    ## 10 business  Financial                69
    ## # ℹ 102 more rows
…
    ## Joining with `by = join_by(word)`
    ## Selecting by n

``` r
train_tidy_top15
```

    ## # A tibble: 107 × 3
    ##    word        theme         n
    ##    <chr>       <chr>     <int>
    ##  1 revenue     Financial   648
    ##  2 growth      Financial   565
    ##  3 profit      Financial   539
    ##  4 operating   Financial   480
    ##  5 sales       Financial   402
    ##  6 million     Financial   384
    ##  7 net         Financial   365
    ##  8 cash        Financial   356
    ##  9 increased   Financial   339
    ## 10 performance Financial   300
    ## # ℹ 97 more rows
…
